{
    "mqtt": {
        "host": "mqtt_hub",
        "port": 1883,
        "username": "",
        "password": "",
        "keepalive": 60,
        "clientId": "<uuid>",
        "qos": 0,
        "willTopic": "<uuid>/smarty_lock",
        "willMessage": "{\"status\": \"offline\"}",
        "willQoS": 0,
        "willRetain": true
    },
    "misc": {
        "time_interval": 31,
        "logging_level": 200,
        "logging_file": "/work/logs/<uuid>.log"
    },
    "messages": {
        "status": {
            "topic": "<uuid>/smarty_lock",
            "payload": "{\"status\": \"online\"}",
            "retain": true
        },
        "state": {
            "topic": "<uuid>/smarty_lock/state",
            "payload": {
                "state": {
                    "func": "randChoice",
                    "param": [
                        "lock",
                        "unlock"
                    ]
                },
                "timestamp": {
                    "func": "date",
                    "param": {
                        "fmt": "H:i:s"
                    }
                }
            }
        },
        "battery": {
            "topic": "<uuid>/smarty_lock/battery",
            "payload": {
                "power": "52%"
            }
        }
    }
}