{
    "mqtt": {
        "host": "mqtt_hub",
        "port": 1883,
        "username": "",
        "password": "",
        "keepalive": 60,
        "clientId": "<uuid>",
        "qos": 0,
        "willTopic": "<uuid>/thermometer",
        "willMessage": "{\"status\": \"offline\"}",
        "willQoS": 0,
        "willRetain": true
    },
    "misc": {
        "time_interval": 10,
        "logging_level": 200,
        "logging_file": "/work/logs/<uuid>.log"
    },
    "messages": {
        "status": {
            "topic": "<uuid>/thermometer",
            "payload": "{\"status\": \"online\"}",
            "once": true,
            "retain": true
        },
        "location": {
            "topic": "<uuid>/thermometer/location",
            "payload": "{\"location\": \"hallway<device_id>\"}",
            "once": true,
            "retain": true
        },
        "uptime": {
            "topic": "<uuid>/thermometer/uptime",
            "payload": {
                "value": {
                    "func": "linear",
                    "param": {
                        "cur": 72000,
                        "delta": 2
                    }
                },
                "unit": "seconds"
            }
        },
        "temperature": {
            "topic": "<uuid>/thermometer/temperature",
            "payload": {
                "value": {
                    "func": "randGauss",
                    "param": {
                        "mean": 16,
                        "sigma": 0.5
                    }
                },
                "unit": "C"
            }
        },
        "humidity": {
            "topic": "<uuid>/thermometer/humidity",
            "payload": {
                "value": {
                    "func": "randGauss",
                    "param": {
                        "mean": 65,
                        "sigma": 0.5
                    }
                },
                "unit": "%"
            }
        },
        "lux": {
            "topic": "<uuid>/thermometer/brightness",
            "payload": {
                "value": {
                    "func": "randUniform",
                    "param": {
                        "min": 1050,
                        "max": 1150,
                        "precision": 4
                    }
                },
                "unit": "lux"
            }
        },
        "update_check": {
            "topic": "<uuid>/thermometer/update/check",
            "payload": {
                "version": "1.02.01"
            }
        },
        "update_result": {
            "topic": "<uuid>/thermometer/update/result",
            "get": "<uuid>/thermometer/update/command",
            "sync": false,
            "payload": {
                "result": "update success"
            }
        }
    }
}